…
You could for instance use it to read in a sheet:

``` r
readxl::read_excel(cah_path(projects_sheet))
#> Warning in read_fun(path = path, sheet_i = sheet, limits = limits, shim =
#> shim, : NA inserted for an unsupported date prior to 1900
#> # A tibble: 87 × 46
#>    team  current_project_status project   brief…¹ resea…² funder quarter quart…³
#>    <chr> <chr>                  <chr>     <chr>   <chr>   <chr>  <chr>   <chr>  
#>  1 Money Complete               CCL Glob… "For s… Hans F… MetLi… Q1 2022 "We ha…
#>  2 Money Complete               DMFS: CEF "This … Jiayu … MetLi… Q1 2022 "The s…
#>  3 Money Complete               DMFS: VA… "In co… Stefan… Metli… Q1 2022 "The p…
#>  4 Money Complete               DMFS: Sc… "We te… Kahini… MetLi… Q1 2022 "Contr…
#>  5 Money Complete               Alight    "This … Perry … MetLi… Q1 2022 "The s…
#>  6 Money Complete               Qapital:… "This … Jiayu … MetLi… Q1 2022 "We co…
#>  7 Money Complete               Pru WSG   "We ar… Jianna… Prude… Q1 2022 "In st…
#>  8 Money Complete               Ascensus… "We ar… Margar… MetLi… Q2 2022 "Due t…
#>  9 Money Sharing                Start at… "We ar… Zarak … MetLi… Q1 2022 "We ar…
#> 10 Money Data Analysis          Branch    "This … Stefán… MetLi… Q2 2022 "The e…
#> # … with 77 more rows, 38 more variables: project_start_date <dttm>,
#> #   irb_protocol_number <chr>, osf_link_s <chr>, box_directory_path <chr>,
#> #   data_storage_path <chr>, publication_plans <chr>, journal_name <chr>,
#> #   status <chr>, funded_by_outside_source <chr>, funding_duration <chr>,
#> #   reviewed_by <chr>, name_of_data_use_agreement <chr>,
#> #   comments_optional <chr>, summary_author <chr>, word_count <dbl>,
#> #   is_there_data <chr>, sensitivity_level <chr>, …
```
…
